{
  "status": true,
  "message": "베스트 리스트 조회를 성공했습니다.",
  "list": {
    "content": [
      {
        "seq": 39,
        "price": 13000,
        "title": "대멸종",
        "discount": "10%",
        "delivery": "무료배송",
        "regDt": "2019-05-15",
        "publisherNo": 32,
        "translatorNo": null,
        "sales": 2000,
        "textIntroduce": "한 세계의 끝을 향해 달리는 다섯 가지 이야기\n2018 겨울 안전가옥 스토리 공모전 수상 작품집\n이승과 저승, 지구와 그 바깥,\n지금 여기의 세계와 상상할 수 없던 새로운 세계의 ‘대멸종’\n\n독특한 주제에 따라 재기발랄한 이야기를 선보이는 ‘안전가옥 스토리 공모전’. 『대멸종』은 지난 2018년 가을 공모전의 수상 작품집인 『냉면』에 이은 두 번째 수상 작품집이다. ‘한 세계의 종말’을 공통분모로 둔 이야기들은 판타지?SF?미스터리 등의 문법을 자유자재로 넘나든다. 우리나라 고유의 저승 신화가 우주과학과 어우러지고, 빈민가에서 펼쳐지는 인간 드라마가 동화적인 판타지를 품는다. 멀지 않은 미래의 우주를 그리던 이야기가 어느 순간 미스터리 스릴러의 색채를 띠기도 한다. 이 흥미로운 결합이 지향하는 바는 이야기 본연의 ‘재미’다. 저마다 또렷한 인상을 남기는 다섯 편의 수록작들은, 더없이 극적인 사건인 대멸종이 재미를 최대한으로 이끌어 내기에 제격이라는 점을 훌륭하게 증명한다. 피하지 못할 어둠의 도래야말로 가장 빛나는 이야기의 시작인 것이다.\n\n이 주제의 또 다른 미덕은 임박한 재앙 앞의 고군분투를 보여 줌으로써 우리 모두에게 주어진 유한한 삶을 돌아보게 해 준다는 점이다. 각 작품의 주인공인 저승 세계의 차사, 게임 회사의 개발자, 리조트에서 일하는 아이, 우주탐사선의 선원, 거대 제국의 현자와 마법사가 맞닥뜨린 상황은 결국 우리가 처한 운명과 크게 다르지 않다. 예정된 끝을 향해 어떻게 나아가야 하는가. 책장을 덮은 뒤에도 쉬이 그치지 못할 질문이다.",
        "imageIntroduce": "introd.jpg",
        "translatorName": null,
        "autherName": "시아란,심너울,강유리,범유진,해도연",
        "score": null,
        "discountPrice": 11000,
        "point": 580,
        "reivewCount": null,
        "coverImage": "coverd.jpg",
        "publisherName": "안전가옥",
        "rank": 1,
        "introImageUri": "introd",
        "coverImageUri": "coverd"
      },
      {
        "seq": 31,
        "price": 32000,
        "title": "모던 웹을 위한 HTML5 CSS3 바이블",
        "discount": "10%",
        "delivery": "무료배송",
        "regDt": "2019-04-30",
        "publisherNo": 31,
        "translatorNo": null,
        "sales": 1000,
        "textIntroduce": "HTML5, CSS3를 배우는 것보다 더 중요한 것은 그것을 이용해 웹 페이지를 구현하는 것입니다. 이 책은 HTML5 표준과 CSS3 표준을 사용하여 웹 페이지를 구현하는 방법을 중심으로 설명합니다. 웹 페이지 레이아웃, 스마트폰 레이아웃, 태블릿 PC 레이아웃, 소셜커머스 메인 페이지 레이아웃을 담았습니다",
        "imageIntroduce": "intromo.jpg",
        "translatorName": null,
        "autherName": "윤인성",
        "score": null,
        "discountPrice": 28000,
        "point": 1440,
        "reivewCount": null,
        "coverImage": "covermo.jpg",
        "publisherName": "한빛미디어",
        "rank": 2,
        "introImageUri": "intromo",
        "coverImageUri": "covermo"
      },
      {
        "seq": 30,
        "price": 38000,
        "title": "한 권으로 끝내는 JAVA",
        "discount": "0%",
        "delivery": "무료배송",
        "regDt": "2010-02-25",
        "publisherNo": 30,
        "translatorNo": 2,
        "sales": 190,
        "textIntroduce": "이제는 말할 수 있다15",
        "imageIntroduce": "nnn.jpg",
        "translatorName": "김길동",
        "autherName": "주시경",
        "score": 1.0,
        "discountPrice": 38000,
        "point": 1900,
        "reivewCount": 2,
        "coverImage": "yuy.jpg",
        "publisherName": "열린책들",
        "rank": 3,
        "introImageUri": "nnn",
        "coverImageUri": "yuy"
      },
      {
        "seq": 29,
        "price": 25000,
        "title": "전한길 필기노트",
        "discount": "0%",
        "delivery": "무료배송",
        "regDt": "1986-05-05",
        "publisherNo": 29,
        "translatorNo": null,
        "sales": 180,
        "textIntroduce": "이제는 말할 수 있다14",
        "imageIntroduce": "bbb.jpg",
        "translatorName": null,
        "autherName": "이순신",
        "score": 4.0,
        "discountPrice": 25000,
        "point": 1250,
        "reivewCount": 2,
        "coverImage": "pop.jpg",
        "publisherName": "은유출판",
        "rank": 4,
        "introImageUri": "bbb",
        "coverImageUri": "pop"
      },
      {
        "seq": 28,
        "price": 15000,
        "title": "노르웨이 숲",
        "discount": "10%",
        "delivery": "무료배송",
        "regDt": "2018-09-05",
        "publisherNo": 28,
        "translatorNo": 1,
        "sales": 170,
        "textIntroduce": "이제는 말할 수 있다13",
        "imageIntroduce": "vvv.jpg",
        "translatorName": "홍길동",
        "autherName": "안창호",
        "score": 3.0,
        "discountPrice": 13000,
        "point": 670,
        "reivewCount": 2,
        "coverImage": "klk.jpg",
        "publisherName": "한길사",
        "rank": 5,
        "introImageUri": "vvv",
        "coverImageUri": "klk"
      },
      {
        "seq": 27,
        "price": 17000,
        "title": "속죄",
        "discount": "20%",
        "delivery": "무료배송",
        "regDt": "2014-05-05",
        "publisherNo": 27,
        "translatorNo": 3,
        "sales": 160,
        "textIntroduce": "이제는 말할 수 있다12",
        "imageIntroduce": "ccc.jpg",
        "translatorName": "박길동",
        "autherName": "김구",
        "score": 2.0,
        "discountPrice": 13000,
        "point": 680,
        "reivewCount": 2,
        "coverImage": "kjk.jpg",
        "publisherName": "사회평론",
        "rank": 6,
        "introImageUri": "ccc",
        "coverImageUri": "kjk"
      },
      {
        "seq": 26,
        "price": 16000,
        "title": "n에 대하여",
        "discount": "15%",
        "delivery": "무료배송",
        "regDt": "2016-02-02",
        "publisherNo": 26,
        "translatorNo": null,
        "sales": 150,
        "textIntroduce": "이제는 말할 수 있다11",
        "imageIntroduce": "xxx.jpg",
        "translatorName": null,
        "autherName": "여운형",
        "score": 5.0,
        "discountPrice": 13000,
        "point": 680,
        "reivewCount": 2,
        "coverImage": "jrt.jpg",
        "publisherName": "문학동네",
        "rank": 7,
        "introImageUri": "xxx",
        "coverImageUri": "jrt"
      },
      {
        "seq": 25,
        "price": 150000,
        "title": "동급생",
        "discount": "15%",
        "delivery": "무료배송",
        "regDt": "2015-08-05",
        "publisherNo": 25,
        "translatorNo": 2,
        "sales": 140,
        "textIntroduce": "이제는 말할 수 있다10",
        "imageIntroduce": "zzz.jpg",
        "translatorName": "김길동",
        "autherName": "지청천",
        "score": 3.0,
        "discountPrice": 127000,
        "point": 6370,
        "reivewCount": 2,
        "coverImage": "uyu.jpg",
        "publisherName": "범우사",
        "rank": 8,
        "introImageUri": "zzz",
        "coverImageUri": "uyu"
      },
      {
        "seq": 24,
        "price": 40000,
        "title": "일곱난장이",
        "discount": "60%",
        "delivery": "무료배송",
        "regDt": "2011-02-02",
        "publisherNo": 24,
        "translatorNo": 1,
        "sales": 130,
        "textIntroduce": "이제는 말할 수 있다9",
        "imageIntroduce": "lll.jpg",
        "translatorName": "홍길동",
        "autherName": "박열",
        "score": 5.0,
        "discountPrice": 16000,
        "point": 800,
        "reivewCount": 2,
        "coverImage": "trt.jpg",
        "publisherName": "밝은세상",
        "rank": 9,
        "introImageUri": "lll",
        "coverImageUri": "trt"
      },
      {
        "seq": 23,
        "price": 30000,
        "title": "백설공주",
        "discount": "50%",
        "delivery": "무료배송",
        "regDt": "2008-09-01",
        "publisherNo": 23,
        "translatorNo": null,
        "sales": 120,
        "textIntroduce": "이제는 말할 수 있다8",
        "imageIntroduce": "kkk.jpg",
        "translatorName": null,
        "autherName": "신채호",
        "score": 0.0,
        "discountPrice": 15000,
        "point": 750,
        "reivewCount": 2,
        "coverImage": "cxc.jpg",
        "publisherName": "민음사",
        "rank": 10,
        "introImageUri": "kkk",
        "coverImageUri": "cxc"
      }
    ],
    "pageable": {
      "sort": {
        "empty": false,
        "sorted": true,
        "unsorted": false
      },
      "offset": 0,
      "pageSize": 10,
      "pageNumber": 0,
      "unpaged": false,
      "paged": true
    },
    "last": false,
    "totalElements": 17,
    "totalPages": 2,
    "size": 10,
    "number": 0,
    "sort": {
      "empty": false,
      "sorted": true,
      "unsorted": false
    },
    "first": true,
    "numberOfElements": 10,
    "empty": false
  },
  "code": "OK"
}
